{
    "18" : "https://www.youtube.com/watch?v=8_Iwgux_2Zo&feature=youtu.be",
    "17" : "https://www.youtube.com/watch?v=LQAcLwUJGT8&t=1s",
    "22" : "https://youtu.be/ZPqCKiO9Xw8",
    "27" : "https://www.youtube.com/watch?v=3khgKE4FQQQ",
    "14" : "https://www.youtube.com/watch?v=b7kQezgJPSE",
    "9" : "https://youtu.be/LHILGSfwvts",
    "10" : "https://www.youtube.com/watch?v=2tGAX6lWnwY",
    "2" : "https://www.youtube.com/watch?v=IED-aKGcnpY&feature=youtu.be",
    "11" : "https://youtu.be/PjvErlW939o",
    "26" : "https://youtu.be/2SUFZgB4hmY",
    "23" : "https://youtu.be/f2qiI0eJlIg",
    "25" : "https://youtu.be/PFqNIxJXlyA",
    "6" : "https://www.youtube.com/watch?v=fN20AZF1hTM",
    "7" : "https://youtu.be/Pe9pC4kky_Q",
    "14" : "https://www.youtube.com/watch?v=b7kQezgJPSE&feature=youtu.be",
    "21" : "https://www.youtube.com/watch?v=eFyGlbBw6Zc",
    "20" : "https://www.youtube.com/watch?v=N4j7xOy24Pw",
    "8" : "https://www.youtube.com/watch?v=4t661Kmm9eM&feature=youtu.be",
    "12" : "https://youtu.be/wNbfhOPy9l4",
    "24" : "https://www.youtube.com/watch?v=PGxERXvujZY",
    "16" : "https://www.youtube.com/watch?v=cJasgbKW_G8",
    "29" : "https://youtu.be/m6jxVWAqxDU",
    "13" : "https://www.youtube.com/watch?v=J88nmEWJD3c",
    "1" : "https://youtu.be/7f-nHvhJR28",
    "15" : "https://www.youtube.com/watch?v=PdWzbob2lLE",
    "19" : "https://www.youtube.com/watch?v=kcEh-nI0USE",
    "3" : "https://youtu.be/Kfp3IfwtD_4",
    "4" : "https://youtu.be/_8N8KC1cjgE",
    "5" : "https://youtu.be/sE1Fxo6rEOg"
}
